%YAML 1.1
%TAG !u! tag:unity3d.com,2011:
--- !u!74 &7400000
AnimationClip:
  m_ObjectHideFlags: 0
  m_CorrespondingSourceObject: {fileID: 0}
  m_PrefabInstance: {fileID: 0}
  m_PrefabAsset: {fileID: 0}
  m_Name: Dragon_Strike
  serializedVersion: 6
  m_Legacy: 0
  m_Compressed: 0
  m_UseHighQualityCurve: 1
  m_RotationCurves: []
  m_CompressedRotationCurves: []
  m_EulerCurves: []
  m_PositionCurves: []
  m_ScaleCurves: []
  m_FloatCurves: []
  m_PPtrCurves:
  - curve:
    - time: 0
      value: {fileID: 21300000, guid: 4b90e2136f82c864199ce0fe6565864e, type: 3}
    - time: 0.083333336
      value: {fileID: 21300000, guid: d039aec307e3c04479b3b8d8b1818bdc, type: 3}
    - time: 0.16666667
      value: {fileID: 21300000, guid: 519b39a04c9af67439a2279a77872a68, type: 3}
    - time: 0.25
      value: {fileID: 21300000, guid: e0f84d52f5380e34fa557ed3116d0c20, type: 3}
    - time: 0.33333334
      value: {fileID: 21300000, guid: e77df11815124d74ba29a147b3ce910a, type: 3}
    attribute: m_Sprite
    path: Square
    classID: 212
    script: {fileID: 0}
  m_SampleRate: 60
  m_WrapMode: 0
  m_Bounds:
    m_Center: {x: 0, y: 0, z: 0}
    m_Extent: {x: 0, y: 0, z: 0}
  m_ClipBindingConstant:
    genericBindings:
    - serializedVersion: 2
      path: 3394203039
      attribute: 0
      script: {fileID: 0}
      typeID: 212
      customType: 23
      isPPtrCurve: 1
    pptrCurveMapping:
    - {fileID: 21300000, guid: 4b90e2136f82c864199ce0fe6565864e, type: 3}
    - {fileID: 21300000, guid: d039aec307e3c04479b3b8d8b1818bdc, type: 3}
    - {fileID: 21300000, guid: 519b39a04c9af67439a2279a77872a68, type: 3}
    - {fileID: 21300000, guid: e0f84d52f5380e34fa557ed3116d0c20, type: 3}
    - {fileID: 21300000, guid: e77df11815124d74ba29a147b3ce910a, type: 3}
  m_AnimationClipSettings:
    serializedVersion: 2
    m_AdditiveReferencePoseClip: {fileID: 0}
    m_AdditiveReferencePoseTime: 0
    m_StartTime: 0
    m_StopTime: 0.35000002
    m_OrientationOffsetY: 0
    m_Level: 0
    m_CycleOffset: 0
    m_HasAdditiveReferencePose: 0
    m_LoopTime: 1
    m_LoopBlend: 0
    m_LoopBlendOrientation: 0
    m_LoopBlendPositionY: 0
    m_LoopBlendPositionXZ: 0
    m_KeepOriginalOrientation: 0
    m_KeepOriginalPositionY: 1
    m_KeepOriginalPositionXZ: 0
    m_HeightFromFeet: 0
    m_Mirror: 0
  m_EditorCurves: []
  m_EulerEditorCurves: []
  m_HasGenericRootTransform: 0
  m_HasMotionFloatCurves: 0
  m_Events: []
